[
  "Olexandr",
  "Ivaschenko",
  [
    {
      "title": "JavaScript",
      "level": "Pro"
    },
    {
      "title": "C++",
      "level": "Pro"
    },
    {
      "title": "C",
      "level": "Pro"
    },
    {
      "title": "Java",
      "level": "Noob"
    }
  ]
]